Getting started with measr
…
The data set we’re using contains 29 items that together measure
three attributes: morphosyntactic rules, cohesive rules, and lexical
rules. The Q-matrix defines which attributes are measured by each item.
For example, item E1 measures morphosyntactic and cohesive rules. The
data is further described in ?ecpe.

library(dcmdata)

ecpe_data
#> # A tibble: 2,922 × 29
#>    resp_id    E1    E2    E3    E4    E5    E6    E7    E8    E9   E10   E11
#>      <int> <int> <int> <int> <int> <int> <int> <int> <int> <int> <int> <int>
#>  1       1     1     1     1     0     1     1     1     1     1     1     1
#>  2       2     1     1     1     1     1     1     1     1     1     1     1
#>  3       3     1     1     1     1     1     1     0     1     1     1     1
#>  4       4     1     1     1     1     1     1     1     1     1     1     1
#>  5       5     1     1     1     1     1     1     1     1     1     1     1
#>  6       6     1     1     1     1     1     1     1     1     1     1     1
#>  7       7     1     1     1     1     1     1     1     1     1     1     1
#>  8       8     0     1     1     1     1     1     0     1     1     1     0
#>  9       9     1     1     1     1     1     1     1     1     1     1     1
#> 10      10     1     1     1     1     0     0     1     1     1     1     1
#> # ℹ 2,912 more rows
#> # ℹ 17 more variables: E12 <int>, E13 <int>, E14 <int>, E15 <int>, E16 <int>,
#> #   E17 <int>, E18 <int>, E19 <int>, E20 <int>, E21 <int>, E22 <int>,
#> #   E23 <int>, E24 <int>, E25 <int>, E26 <int>, E27 <int>, E28 <int>

ecpe_qmatrix
#> # A tibble: 28 × 4
#>    item_id morphosyntactic cohesive lexical
#>    <chr>             <int>    <int>   <int>
#>  1 E1                    1        1       0
#>  2 E2                    0        1       0
#>  3 E3                    1        0       1
#>  4 E4                    0        0       1
#>  5 E5                    0        0       1
#>  6 E6                    0        0       1
#>  7 E7                    1        0       1
#>  8 E8                    0        1       0
#>  9 E9                    0        0       1
#> 10 E10                   1        0       0
#> # ℹ 18 more rows
…
Once the model as estimated, we can use measr_extract()
to pull out the probability that each respondent is proficient on each
of the attributes. For example, the first respondent has probabilities
near 1 for all attributes, indicating a high degree of confidence that
they are proficient in all attributes. On the other hand, respondent 8
has relatively low probabilities for morphosyntactic and cohesive
attributes, and is likely only proficient in lexical rules.

ecpe_lcdm <- add_respondent_estimates(ecpe_lcdm)
measr_extract(ecpe_lcdm, "attribute_prob")
#> # A tibble: 2,922 × 4
#>    resp_id morphosyntactic cohesive lexical
#>    <chr>             <dbl>    <dbl>   <dbl>
#>  1 1               0.997      0.962  1.000 
#>  2 2               0.995      0.910  1.000 
#>  3 3               0.985      0.990  1.000 
#>  4 4               0.998      0.991  1.000 
#>  5 5               0.989      0.984  0.956 
#>  6 6               0.993      0.991  1.000 
#>  7 7               0.993      0.991  1.000 
#>  8 8               0.00455    0.461  0.963 
#>  9 9               0.949      0.986  0.998 
#> 10 10              0.627      0.138  0.0929
#> # ℹ 2,912 more rows
…
